<?xml version="1.0" encoding="UTF-8"?>
<!DOCTYPE svg PUBLIC "-//W3C//DTD SVG 1.1//EN" "http://www.w3.org/Graphics/SVG/1.1/DTD/svg11.dtd">
<!-- Creator: CorelDRAW 2017 -->
<svg xmlns="http://www.w3.org/2000/svg" xml:space="preserve" width="30.5394mm" height="33.8001mm" version="1.1" style="shape-rendering:geometricPrecision; text-rendering:geometricPrecision; image-rendering:optimizeQuality; fill-rule:evenodd; clip-rule:evenodd"
viewBox="0 0 126.92 140.47"
 xmlns:xlink="http://www.w3.org/1999/xlink">
 <defs>
  <style type="text/css">
   <![CDATA[
    .str0 {stroke:black;stroke-width:4.16;stroke-miterlimit:22.9256}
    .fil0 {fill:none}
   ]]>
  </style>
 </defs>
 <g id="Слой_x0020_1">
  <metadata id="CorelCorpID_0Corel-Layer"/>
  <path class="fil0 str0" d="M63.16 133.75c-1.72,-3.1 -5.91,-6.65 -8.53,-9.25 -2.57,-2.55 -6.17,-5.7 -8.1,-8.43 1.68,-6.55 9.85,-23.39 13.06,-31.93 1.85,-4.93 -1.77,-4.6 -3.53,-8.9 7.34,0.71 8.42,0.27 15.27,0.06l-4.63 6.1c2.2,9.2 13.24,27.92 13.71,35.62 -3.83,3.16 -13.63,12.81 -16.53,16.66 0.34,9.53 33.34,3.48 54.3,-8.14 18.55,-8.77 -5.57,-38.34 -23.7,-47.94 -3.49,-1.85 -12.26,-4.4 -14.85,-6.44 1.48,-2.44 4.85,-4.51 7.06,-7.1 21.66,-25.33 8.38,-61.79 -22.83,-61.98 -27.27,-0.16 -42.01,28.14 -29.66,52.19 6.41,12.48 10.46,12.81 13.28,16.88 -0.58,0.42 -0.08,0.23 -1.59,0.92l-5.83 2.06c-15.64,5.99 -31.14,19.87 -36.66,36.51 -2.67,8.04 -1.28,11.16 4.37,14.24 20.82,12.52 58.63,18.16 55.41,8.88z"/>
 </g>
</svg>
