<?xml version="1.0" encoding="UTF-8"?>
<!DOCTYPE svg PUBLIC "-//W3C//DTD SVG 1.1//EN" "http://www.w3.org/Graphics/SVG/1.1/DTD/svg11.dtd">
<!-- Creator: CorelDRAW 2017 -->
<svg xmlns="http://www.w3.org/2000/svg" xml:space="preserve" width="33.5243mm" height="33.5244mm" version="1.1" style="shape-rendering:geometricPrecision; text-rendering:geometricPrecision; image-rendering:optimizeQuality; fill-rule:evenodd; clip-rule:evenodd"
viewBox="0 0 237.06 237.06"
 xmlns:xlink="http://www.w3.org/1999/xlink">
 <defs>
  <style type="text/css">
   <![CDATA[
    .str0 {stroke:black;stroke-width:7.07;stroke-miterlimit:22.9256}
    .fil0 {fill:none}
   ]]>
  </style>
 </defs>
 <g id="Слой_x0020_1">
  <metadata id="CorelCorpID_0Corel-Layer"/>
  <g id="_2218015292704">
   <g>
    <polygon class="fil0 str0" points="90.46,108.26 102.78,108.26 102.78,175.34 90.46,175.34 90.46,193.14 146.59,193.14 146.59,175.34 135.64,175.34 135.64,89.1 90.46,89.1 "/>
    <path class="fil0 str0" d="M117.84 76.77c6.23,0 9.93,-0.84 13.67,-4.13 12.45,-10.93 1.34,-28.73 -10.93,-28.73 -24.99,0 -22.8,32.86 -2.74,32.86z"/>
   </g>
   <circle class="fil0 str0" cx="118.53" cy="118.53" r="114.99"/>
  </g>
 </g>
</svg>
