<?xml version="1.0" encoding="UTF-8"?>
<!DOCTYPE svg PUBLIC "-//W3C//DTD SVG 1.1//EN" "http://www.w3.org/Graphics/SVG/1.1/DTD/svg11.dtd">
<!-- Creator: CorelDRAW 2017 -->
<svg xmlns="http://www.w3.org/2000/svg" xml:space="preserve" width="39.8064mm" height="34.0516mm" version="1.1" style="shape-rendering:geometricPrecision; text-rendering:geometricPrecision; image-rendering:optimizeQuality; fill-rule:evenodd; clip-rule:evenodd"
viewBox="0 0 157.2 134.47"
 xmlns:xlink="http://www.w3.org/1999/xlink">
 <defs>
  <style type="text/css">
   <![CDATA[
    .str0 {stroke:#876B21;stroke-width:3.95;stroke-miterlimit:22.9256}
    .fil0 {fill:none}
   ]]>
  </style>
 </defs>
 <g id="Слой_x0020_1">
  <metadata id="CorelCorpID_0Corel-Layer"/>
  <g id="_2218055987808">
   <path class="fil0 str0" d="M3.39 43.93c0.63,0.76 37.09,20.89 37.59,21.17 3.53,2 37.13,20.93 37.8,20.93 0.85,0 61.27,-34.17 74.24,-41.28l1.02 -0.7c0.03,-0.02 0.09,-0.08 0.12,-0.13l-18.72 -10.54c-9.26,-4.94 -19.02,-10.83 -28.19,-15.72 -4.16,-2.22 -27.49,-15.69 -28.48,-15.69 -0.97,0 -48.64,27.12 -56.51,31.33 -3.28,1.76 -6.21,3.49 -9.39,5.26l-9.5 5.37z"/>
   <path class="fil0 str0" d="M12.06 59.83c-0.29,0.14 -8.22,6.64 -8.72,7.41 0.79,0.75 7.8,4.5 9.33,5.35l28.32 15.79c3.65,2.05 37.21,20.94 37.77,20.94 0.56,0 34.12,-18.89 37.77,-20.94 0.84,-0.47 36.82,-20.34 37.66,-21.14l-8.71 -7.62c-2.21,0.82 -13.04,7.05 -16.59,8.88 -10.9,5.63 -22.21,12.22 -33.15,17.95 -1.73,0.91 -16.12,8.9 -16.79,8.99 -0.68,0.09 -52.72,-27.98 -62.68,-33.41 -1.16,-0.63 -2.96,-1.75 -4.21,-2.21z"/>
   <path class="fil0 str0" d="M12.06 83.09c-1.38,0.76 -3.18,2.63 -4.51,3.7l-4.32 3.71c1.24,0.85 3.08,1.79 4.53,2.6 11.49,6.45 70.41,39.41 71.01,39.41l70.85 -39.32c1.53,-0.87 3.38,-1.8 4.69,-2.69 -0.81,-1.02 -7.89,-6.54 -8.75,-7.6 -1.5,0.47 -31.23,16.72 -33.27,17.85 -3.26,1.8 -32.47,17.89 -33.34,18.01 -0.85,0.11 -14.89,-7.78 -16.68,-8.74l-50.21 -26.92z"/>
  </g>
 </g>
</svg>
